<svg xmlns="http://www.w3.org/2000/svg" id="Layer_1" viewBox="0 0 371.66 389.68">
    <style>
        .st0{opacity:.3}
    </style>
    <path d="M120.88 83.72l28.53-34.29v35.88z" class="st0"/>
    <path d="M160.91 184.53h102.05v10H160.91zM222.43 152.4h40.53v10h-40.53zM160.91 216.66h102.05v10H160.91zM253.28 248.79h9.68v10h-9.68z"/>
    <path d="M315.52 316.8V43.66c0-6.2-5.04-11.24-11.24-11.24h-145.5l-50.43 52.67v81.49L70.91 109.4c-5.15-7.87-15.75-10.08-23.62-4.93l-6.52 4.27c-7.87 5.15-10.08 15.75-4.93 23.62l72.5 110.72v73.71c0 6.2 5.04 11.24 11.24 11.24h184.69c6.21.01 11.25-5.03 11.25-11.23zM155.91 49.87v30.98c0 .69-.56 1.24-1.24 1.24h-29.61l30.85-32.22zm2.63 213.82l1.63 20.3-17.95-9.61 16.32-10.69zm-22.8 2.98l-80.7-123.24 5.69-3.72 12.82-8.01 80.52 122.98-18.33 11.99zM46.26 117.11l6.52-4.27a7.076 7.076 0 0 1 9.78 2.04L68 123.6 49.49 135l-5.27-8.11c-2.14-3.26-1.22-7.65 2.04-9.78zm72.09 199.69v-58.44l14.5 22.15.09-.06c.35.37.75.7 1.22.95l25.28 13.54a7.471 7.471 0 0 0 7.72-.28c2.33-1.53 3.61-4.19 3.35-6.89l-2.31-28.66c-.01-.11-.04-.22-.06-.33h68.44v-10h-74.42l-43.83-66.94V92.1h36.32c6.2 0 11.24-5.04 11.24-11.24V42.42h138.37c.68 0 1.24.56 1.24 1.24V316.8c0 .69-.56 1.24-1.24 1.24H119.59c-.68 0-1.24-.56-1.24-1.24z"/>
    <path d="M335.04 62.97h-11.52v10h11.52c.69 0 1.24.56 1.24 1.24v273.14c0 .68-.56 1.24-1.24 1.24H150.35c-.69 0-1.24-.56-1.24-1.24v-11.31h-10v11.31c0 6.2 5.04 11.24 11.24 11.24h184.69c6.2 0 11.24-5.04 11.24-11.24V74.22c0-6.2-5.04-11.25-11.24-11.25z"/>
    <path d="M188.48 59.97h95.29v236.34h-95.29z" class="st0"/>
</svg>
