<svg xmlns="http://www.w3.org/2000/svg" id="Layer_1" viewBox="0 0 531.58 309.29">
    <style>
        .st0{opacity:.3;enable-background:new}
    </style>
    <path d="M267.48 242.25L64.73 204.72c-3.05-.37-5.33-2.74-5.33-5.55v-53.82c0-2.52 1.85-4.74 4.51-5.4L266.66 82c3.9-.97 7.74 1.71 7.74 5.4v149.29c0 3.39-3.25 6-6.92 5.56z" class="st0"/>
    <path d="M475.61 97.77l-.15-.05-193.94-44.85c-3.12-.96-6.44-1.05-9.61-.27l-.14.04-232.5 76.1c-3.52.95-4.55 3.74-4 5.97.51 2.08 2 4.53 13.82 9.52 7.19 3.04 10.58 4.05 12.31 4.33v48.71c-.83-.12-1.67-.18-2.51-.18-.93 0-3.39 0-9.97 6.66-4.29 4.34-6.68 7.87-7.11 10.5-.43 2.64.91 4.97 3.35 5.79l.23.08L272 266.58c1.39.34 2.82.51 4.24.51 1.78 0 3.56-.26 5.28-.79l192.78-44.81 1.11-.26.81-.81c.76-.76 2.36-2.9.9-6.45-2.05-4.96-13.57-16.23-18.51-16.23h-.21v-82.49c2.57-.83 5-1.68 6.3-2.16 13.04-4.81 14.45-7.36 14.83-9.76.29-1.9-.56-4.5-3.92-5.56zm-74.55 112.4V109.43l23.91 3.96v91.57l-23.91 5.21zm-8 1.75l-31.04 6.76V102.96l31.04 5.14v103.82zm-39.04 8.5l-31.79 6.92V96.37l31.79 5.27v118.78zm-39.79 8.66l-35.83 7.8V89.11l35.83 5.94v134.03zm-43.83 7.39l-36.02-6.76V100.42l36.02-10.14v146.19zm-44.02-8.26l-42.14-7.9V114.52l42.14-11.85v125.54zm-50.14-9.41l-34.97-6.56V126.6l34.97-9.83V218.8zm-42.96-8.06l-27.66-5.19v-68.92l27.66-7.78v81.89zm-35.67-6.69l-28.21-5.29v-51.95l28.21-7.93v65.17zm370.6 10.63l-188.64 43.85-.3.08c-1.76.56-3.64.62-5.43.18l-222.6-45.64c2.29-2.9 6.41-6.93 8.28-8.05.6.04 1.2.13 1.78.28l214.53 40.25 182.56-39.75c2.32 1.26 7.26 5.69 9.82 8.8zm-17.81-15.25l-17.43 3.79v-88.51l15.99 2.65.33.05h.33c.22 0 .49-.03.78-.07v82.09zm-.67-90.04l-173.3-28.72-.88-.15L62.1 140.56c-2.66-.75-10-3.57-14.95-5.98l226.83-74.24c1.75-.41 3.58-.34 5.29.21l.15.05 186.97 43.24c-5.79 2.41-14.03 5.11-16.66 5.55z"/>
    <path d="M274.4 56.08v28.54L63.51 144.68l-23.11-12.1zM274.4 262.67L45.72 212.58l13.68-13.41 215 43.13z" class="st0"/>
</svg>
